{
  "_embedded": {
    "underenheter": [
      {
        "organisasjonsnummer": "54307983",
        "navn": "Underenhet 1",
        "organisasjonsform": {
          "kode": "BEDR",
          "beskrivelse": "Underenhet til næringsdrivende og offentlig forvaltning",
          "_links": {
            "self": {
              "href": "https://data.brreg.no/enhetsregisteret/api/organisasjonsformer/BEDR"
            }
          }
        },
        "registreringsdatoEnhetsregisteret": "2017-01-03",
        "registrertIMvaregisteret": false,
        "naeringskode1": {
          "beskrivelse": "Agenturhandel med møbler, husholdningsvarer og jernvarer",
          "kode": "46.150"
        },
        "antallAnsatte": 4,
        "overordnetEnhet": "6432896",
        "oppstartsdato": "2016-04-04",
        "beliggenhetsadresse": {
          "land": "Norge",
          "landkode": "NO",
          "postnummer": "1234",
          "poststed": "OSLO",
          "adresse": [
            "Testveien 42"
          ],
          "kommune": "OSLO",
          "kommunenummer": "8921"
        },
        "_links": {
          "self": {
            "href": "https://data.brreg.no/enhetsregisteret/api/underenheter/54307983"
          },
          "overordnetEnhet": {
            "href": "https://data.brreg.no/enhetsregisteret/api/enheter/6432896"
          }
        }
      },
      {
        "organisasjonsnummer": "999666555",
        "navn": "Underenhet 2",
        "organisasjonsform": {
          "kode": "BEDR",
          "beskrivelse": "Bedrift",
          "_links": {
            "self": {
              "href": "https://data.brreg.no/enhetsregisteret/api/organisasjonsformer/BEDR"
            }
          }
        },
        "registreringsdatoEnhetsregisteret": "2000-11-11",
        "registrertIMvaregisteret": false,
        "naeringskode1": {
          "beskrivelse": "Tjenester tilknyttet underholdningsvirksomhet",
          "kode": "90.020"
        },
        "antallAnsatte": 0,
        "overordnetEnhet": "444555666",
        "oppstartsdato": "1998-03-01",
        "beliggenhetsadresse": {
          "land": "Norge",
          "landkode": "NO",
          "postnummer": "8765",
          "poststed": "Oslo",
          "adresse": [
            "Testheimen 32"
          ],
          "kommune": "OSLO",
          "kommunenummer": "4432"
        },
        "_links": {
          "self": {
            "href": "https://data.brreg.no/enhetsregisteret/api/underenheter/999666555"
          },
          "overordnetEnhet": {
            "href": "https://data.brreg.no/enhetsregisteret/api/enheter/444555666"
          }
        }
      }
    ]
  },
  "_links": {
    "first": {
      "href": "https://data.brreg.no/enhetsregisteret/api/underenheter/?page=0&size=2"
    },
    "prev": {
      "href": "https://data.brreg.no/enhetsregisteret/api/underenheter/?page=0&size=2"
    },
    "self": {
      "href": "https://data.brreg.no/enhetsregisteret/api/underenheter/?size=2&page=1"
    },
    "next": {
      "href": "https://data.brreg.no/enhetsregisteret/api/underenheter/?page=2&size=2"
    },
    "last": {
      "href": "https://data.brreg.no/enhetsregisteret/api/underenheter/?page=108126&size=2"
    }
  },
  "page": {
    "size": 2,
    "totalElements": 756888,
    "totalPages": 108127,
    "number": 1
  }
}